^E:\REPOS\HAUNTED HARBOUR\HAUNTED HARBOUR\HAUNTED HARBOUR\DEBUG\BACKGROUNDOBJECT.OBJ|E:\REPOS\HAUNTED HARBOUR\HAUNTED HARBOUR\HAUNTED HARBOUR\DEBUG\BULLETOBJECT.OBJ|E:\REPOS\HAUNTED HARBOUR\HAUNTED HARBOUR\HAUNTED HARBOUR\DEBUG\FLYINGENEMYOBJECT.OBJ|E:\REPOS\HAUNTED HARBOUR\HAUNTED HARBOUR\HAUNTED HARBOUR\DEBUG\GRAPHICSOBJECT.OBJ|E:\REPOS\HAUNTED HARBOUR\HAUNTED HARBOUR\HAUNTED HARBOUR\DEBUG\GREENBULLET.OBJ|E:\REPOS\HAUNTED HARBOUR\HAUNTED HARBOUR\HAUNTED HARBOUR\DEBUG\GROUNDENEMY.OBJ|E:\REPOS\HAUNTED HARBOUR\HAUNTED HARBOUR\HAUNTED HARBOUR\DEBUG\HAUNTED HARBOUR.OBJ|E:\REPOS\HAUNTED HARBOUR\HAUNTED HARBOUR\HAUNTED HARBOUR\DEBUG\HAUNTED HARBOUR.RES|E:\REPOS\HAUNTED HARBOUR\HAUNTED HARBOUR\HAUNTED HARBOUR\DEBUG\LIFEBAR.OBJ|E:\REPOS\HAUNTED HARBOUR\HAUNTED HARBOUR\HAUNTED HARBOUR\DEBUG\PLAYEROBJECT.OBJ|E:\REPOS\HAUNTED HARBOUR\HAUNTED HARBOUR\HAUNTED HARBOUR\DEBUG\PURPLEBULLET.OBJ|E:\REPOS\HAUNTED HARBOUR\HAUNTED HARBOUR\HAUNTED HARBOUR\DEBUG\STDAFX.OBJ|E:\REPOS\HAUNTED HARBOUR\HAUNTED HARBOUR\HAUNTED HARBOUR\DEBUG\WEAPONSOBJECT.OBJ
E:\REPOS\HAUNTED HARBOUR\HAUNTED HARBOUR\DEBUG\HAUNTED HARBOUR.EXE
E:\REPOS\HAUNTED HARBOUR\HAUNTED HARBOUR\DEBUG\HAUNTED HARBOUR.ILK
E:\REPOS\HAUNTED HARBOUR\HAUNTED HARBOUR\DEBUG\HAUNTED HARBOUR.PDB
